<svg xmlns="http://www.w3.org/2000/svg" width="64" height="64" viewBox="0 0 64 64">
    <g fill="none" fill-rule="evenodd" transform="translate(2 7)">
        <path stroke="#444" stroke-linecap="square" stroke-width="2" d="M5 10A5 5 0 0 1 5 0h40v4"/>
        <path stroke="#353535" stroke-linecap="square" stroke-width="2" d="M56 26V10H5a5 5 0 0 1-5-5v41a8 8 0 0 0 8 8h48V38"/>
        <path fill="#DEDEDD" d="M4 46a4 4 0 0 0 4 4h44v-8h-6c-5.523 0-10-4.477-10-10s4.477-10 10-10h6v-8H5c-.338 0-.672-.019-1-.055V46z"/>
        <path fill="#1C7AAE" d="M60 38H46a6 6 0 1 1 0-12h14v12z"/>
        <circle cx="46" cy="32" r="2" fill="#FFF" fill-rule="nonzero"/>
    </g>
</svg>
