<svg xmlns="http://www.w3.org/2000/svg" width="48" height="48" viewBox="0 0 48 48">
    <g fill="none" fill-rule="evenodd">
        <path fill="#DEDEDD" d="M13.953 10.588c5.42-4.075 10.104-7.599 10.101-7.603l4.621 6.119c3.524-1.212 5.972-2.055 5.97-2.059l1.223 3.543h3.173l-1.559-4.517c-.535-1.55-2.25-2.386-3.812-1.849l-3.91 1.344-3.31-4.382A3.011 3.011 0 0 0 22.252.6L8.966 10.588h4.987zM6 18.085V42h31.5V18.085z"/>
        <path fill="#353535" d="M43.5 21.064V16.56c0-2.477-2.022-4.476-4.511-4.476H4.511C2.021 12.085 0 14.086 0 16.56v26.963C0 46 2.022 48 4.511 48h34.478c2.49 0 4.511-2.001 4.511-4.476V39.02h-3v4.503c0 .817-.673 1.483-1.511 1.483H4.511A1.496 1.496 0 0 1 3 43.524V16.56c0-.817.673-1.483 1.511-1.483h34.478c.838 0 1.511.665 1.511 1.483v4.503h3z"/>
        <path fill="#1C7AAE" d="M31 25.8c0-1.549 1.015-2.8 2.217-2.8h12.566C46.984 23 48 24.259 48 25.8v8.4c0 1.549-1.015 2.8-2.217 2.8H33.217C32.016 37 31 35.741 31 34.2v-8.4z"/>
        <circle cx="36" cy="30" r="2" fill="#FFF"/>
    </g>
</svg>
